MODE 2
SIZE 11/60
LIMIT 0/45
COLOR LIMIT 5
STARS 3500/7000/12000
CollectNo  3
0 1 1 0 2 2 0 3 3 0 0
1 8 1 2 9 2 3 10 3 0 0
0 1 1 0 2 2 0 3 3 0 0
0 0 6 6 0 6 6 0 6 6 0
0 0 6 0 6 6 0 6 6 0 6
0 0 6 6 0 6 6 0 6 6 0
0 4 4 0 5 5 0 1 1 0 0
4 0 4 5 0 5 1 0 1 0 0
0 4 4 0 5 5 0 1 1 0 0
0 0 6 6 0 6 6 0 6 6 0
0 0 6 0 6 6 0 6 6 0 6
0 0 6 6 0 6 6 0 6 6 0
0 3 3 0 2 2 0 4 4 0 0
3 0 3 2 0 2 4 0 4 0 0
0 3 3 0 2 2 0 4 4 0 0
0 0 6 6 0 6 6 0 6 6 0
0 0 6 0 6 6 0 6 6 0 6
0 0 6 6 0 6 6 0 6 6 0
0 2 2 0 3 3 0 5 5 0 0
2 0 2 3 0 3 5 0 5 0 0
0 2 2 0 3 3 0 5 5 0 0
0 0 6 6 0 6 6 0 6 6 0
0 0 6 0 6 6 0 6 6 0 6
0 0 6 6 0 6 6 0 6 6 0
0 4 4 0 1 1 0 2 2 0 0
4 0 4 1 0 1 2 0 2 0 0
0 4 4 0 1 1 0 2 2 0 0
0 0 6 6 0 6 6 0 6 6 0
0 0 6 0 6 6 0 6 6 0 6
0 0 6 6 0 6 6 0 6 6 0
0 5 5 0 3 3 0 4 4 0 0
5 0 5 3 0 3 4 0 4 0 0
0 5 5 0 3 3 0 4 4 0 0
0 0 6 6 0 6 6 0 6 6 0
0 0 6 0 6 6 0 6 6 0 6
0 0 6 6 0 6 6 0 6 6 0
0 0 0 0 0 0 0 0 0 0 0
0 0 0 0 0 0 0 0 0 0 0
0 0 0 0 0 0 0 0 0 0 0
0 0 0 0 0 0 0 0 0 0 0
0 0 0 0 0 0 0 0 0 0 0
0 0 0 0 0 0 0 0 0 0 0
0 0 0 0 0 0 0 0 0 0 0
0 0 0 0 0 0 0 0 0 0 0
0 0 0 0 0 0 0 0 0 0 0
0 0 0 0 0 0 0 0 0 0 0
0 0 0 0 0 0 0 0 0 0 0
0 0 0 0 0 0 0 0 0 0 0
0 0 0 0 0 0 0 0 0 0 0
0 0 0 0 0 0 0 0 0 0 0
0 0 0 0 0 0 0 0 0 0 0
0 0 0 0 0 0 0 0 0 0 0
0 0 0 0 0 0 0 0 0 0 0
0 0 0 0 0 0 0 0 0 0 0
0 0 0 0 0 0 0 0 0 0 0
0 0 0 0 0 0 0 0 0 0 0
0 0 0 0 0 0 0 0 0 0 0
0 0 0 0 0 0 0 0 0 0 0
0 0 0 0 0 0 0 0 0 0 0
0 0 0 0 0 0 0 0 0 0 0