MODE 2
SIZE 11/60
LIMIT 0/75
COLOR LIMIT 5
STARS 4000/12000/20000
CollectNo  9
6 6 13 6 6 6 6 6 13 6 6
6 6 6 6 6 6 6 6 6 6 0
6 6 6 6 6 6 6 6 6 6 6
6 6 6 6 6 6 6 6 6 6 0
6 6 6 6 6 6 6 6 6 6 6
6 6 6 6 1 1 6 6 6 6 0
6 6 0 0 1 13 1 0 0 6 6
6 6 0 0 1 1 0 0 6 6 0
0 6 6 0 6 6 6 0 6 6 0
0 6 6 0 5 5 0 6 6 0 0
0 0 6 6 5 13 5 6 6 0 0
0 6 6 0 5 5 0 6 6 0 0
0 6 6 0 0 6 0 0 6 6 0
6 6 0 0 6 6 0 0 6 6 0
6 6 0 0 0 6 0 0 0 6 6
6 6 0 0 6 6 0 0 6 6 0
0 6 6 0 0 6 0 0 6 6 0
0 6 6 0 4 4 0 6 6 0 0
0 0 6 6 4 13 4 6 6 0 0
0 6 6 0 4 4 0 6 6 0 0
0 6 6 0 0 6 0 0 6 6 0
6 6 0 0 6 6 0 0 6 6 0
6 6 0 0 0 6 0 0 0 6 6
6 6 0 0 6 6 0 0 6 6 0
0 6 6 0 0 6 0 0 6 6 0
0 6 6 0 2 2 0 6 6 0 0
0 0 6 6 2 13 2 6 6 0 0
0 6 6 6 2 2 0 6 6 0 0
0 6 6 0 0 6 0 0 6 6 0
6 6 0 0 6 6 0 0 6 6 0
6 6 0 0 0 6 0 0 0 6 6
6 6 0 0 6 6 0 0 6 6 0
0 6 6 0 0 6 0 0 6 6 0
0 6 6 0 4 4 0 6 6 0 0
0 0 6 6 4 13 4 6 6 0 0
0 6 6 0 4 4 0 6 6 0 0
0 6 6 0 0 6 0 0 6 6 0
6 6 0 0 6 6 0 0 6 6 0
6 6 0 0 0 6 0 0 0 6 6
6 6 0 0 6 6 0 0 6 6 0
0 6 6 0 0 6 0 0 6 6 0
0 6 6 0 2 2 0 6 6 0 0
0 0 6 6 2 13 2 6 6 0 0
0 6 6 0 2 2 0 6 6 0 0
0 6 6 0 0 6 0 0 6 6 0
6 6 0 0 6 6 0 0 6 6 0
6 6 0 0 6 6 6 0 0 6 6
6 6 6 6 6 6 6 6 6 6 0
6 0 6 6 5 5 5 6 6 0 6
6 0 6 5 3 3 5 6 0 6 0
6 6 0 5 3 9 3 5 0 6 6
6 6 0 5 3 3 5 0 6 6 0
6 6 6 0 5 5 5 0 6 6 6
6 6 6 0 6 6 0 6 6 6 0
6 6 6 6 0 6 0 6 6 6 6
0 0 0 0 0 0 0 0 0 0 0
0 0 0 0 0 0 0 0 0 0 0
0 0 0 0 0 0 0 0 0 0 0
0 0 0 0 0 0 0 0 0 0 0
0 0 0 0 0 0 0 0 0 0 0