MODE 2
SIZE 11/30
LIMIT 0/29
COLOR LIMIT 4
STARS 1500/3600/5000
CollectNo  8
5 3 1 0 5 8 1 0 4 5 0
5 5 3 4 5 3 0 4 5 0 0
0 3 1 5 0 5 3 1 4 5 0
3 8 0 5 5 3 0 1 8 4 0
5 3 1 0 0 3 0 1 4 5 0
5 5 3 2 2 9 2 4 5 0 0
0 3 2 4 0 4 0 2 4 5 0
10 0 2 0 4 5 4 2 0 4 0
5 3 2 0 0 4 0 2 4 5 0
5 5 3 2 2 2 2 4 5 0 0
0 3 1 4 0 2 0 1 4 5 0
3 1 0 0 4 0 3 0 1 4 0
0 3 1 5 0 3 0 1 11 5 0
0 0 10 0 5 0 1 4 5 0 0
0 3 1 4 5 0 0 1 4 5 0
3 1 0 0 4 0 3 0 8 4 0
0 3 1 0 0 3 0 1 4 0 0
0 0 0 0 0 0 0 0 0 0 0
0 0 0 0 0 0 0 0 0 0 0
0 0 0 0 0 0 0 0 0 0 0
0 0 0 0 0 0 0 0 0 0 0
0 0 0 0 0 0 0 0 0 0 0
0 0 0 0 0 0 0 0 0 0 0
0 0 0 0 0 0 0 0 0 0 0
0 0 0 0 0 0 0 0 0 0 0
0 0 0 0 0 0 0 0 0 0 0
0 0 0 0 0 0 0 0 0 0 0
0 0 0 0 0 0 0 0 0 0 0
0 0 0 0 0 0 0 0 0 0 0
0 0 0 0 0 0 0 0 0 0 0
0 0 0 0 0 0 0 0 0 0 0
0 0 0 0 0 0 0 0 0 0 0
0 0 0 0 0 0 0 0 0 0 0
0 0 0 0 0 0 0 0 0 0 0
0 0 0 0 0 0 0 0 0 0 0
0 0 0 0 0 0 0 0 0 0 0
0 0 0 0 0 0 0 0 0 0 0
0 0 0 0 0 0 0 0 0 0 0
0 0 0 0 0 0 0 0 0 0 0
0 0 0 0 0 0 0 0 0 0 0
0 0 0 0 0 0 0 0 0 0 0
0 0 0 0 0 0 0 0 0 0 0
0 0 0 0 0 0 0 0 0 0 0
0 0 0 0 0 0 0 0 0 0 0
0 0 0 0 0 0 0 0 0 0 0
0 0 0 0 0 0 0 0 0 0 0
0 0 0 0 0 0 0 0 0 0 0
0 0 0 0 0 0 0 0 0 0 0
0 0 0 0 0 0 0 0 0 0 0
0 0 0 0 0 0 0 0 0 0 0
0 0 0 0 0 0 0 0 0 0 0
0 0 0 0 0 0 0 0 0 0 0
0 0 0 0 0 0 0 0 0 0 0
0 0 0 0 0 0 0 0 0 0 0
0 0 0 0 0 0 0 0 0 0 0
0 0 0 0 0 0 0 0 0 0 0
0 0 0 0 0 0 0 0 0 0 0
0 0 0 0 0 0 0 0 0 0 0
0 0 0 0 0 0 0 0 0 0 0
0 0 0 0 0 0 0 0 0 0 0