MODE 2
SIZE 11/30
LIMIT 0/46
COLOR LIMIT 4
STARS 2500/4000/5500
CollectNo  8
0 4 4 4 4 11 4 4 4 4 0
1 0 1 0 1 0 1 0 1 0 1
5 1 5 1 5 8 5 1 5 1 5
5 0 5 0 5 0 5 0 5 0 5
3 5 3 5 3 12 3 5 3 5 3
3 0 3 0 3 0 3 0 3 0 3
2 3 2 3 2 3 2 3 2 3 2
2 0 2 0 2 0 2 0 2 0 2
4 2 4 0 4 2 4 2 4 2 4
4 0 4 0 4 0 4 0 4 0 4
1 4 1 4 1 11 1 4 1 4 1
1 0 1 0 1 0 1 0 1 0 1
5 1 5 1 5 1 5 1 5 1 5
5 0 5 0 5 0 5 0 5 0 5
0 5 0 5 0 12 0 5 0 5 0
3 0 3 0 3 0 3 0 3 0 3
0 3 0 3 0 10 0 3 0 3 3
0 2 2 2 2 9 2 2 2 2 0
2 0 0 0 0 0 0 0 0 0 2
0 2 0 0 0 0 0 0 0 2 0
0 0 2 0 0 0 0 0 2 0 0
0 0 5 5 5 12 5 5 5 0 0
0 5 0 0 0 0 0 0 0 5 0
5 0 0 0 0 0 0 0 0 0 5
0 0 0 0 0 0 0 0 0 0 0
0 0 0 0 0 0 0 0 0 0 0
0 0 0 0 0 0 0 0 0 0 0
0 0 0 0 0 0 0 0 0 0 0
0 0 0 0 0 0 0 0 0 0 0
0 0 0 0 0 0 0 0 0 0 0
0 0 0 0 0 0 0 0 0 0 0
0 0 0 0 0 0 0 0 0 0 0
0 0 0 0 0 0 0 0 0 0 0
0 0 0 0 0 0 0 0 0 0 0
0 0 0 0 0 0 0 0 0 0 0
0 0 0 0 0 0 0 0 0 0 0
0 0 0 0 0 0 0 0 0 0 0
0 0 0 0 0 0 0 0 0 0 0
0 0 0 0 0 0 0 0 0 0 0
0 0 0 0 0 0 0 0 0 0 0
0 0 0 0 0 0 0 0 0 0 0
0 0 0 0 0 0 0 0 0 0 0
0 0 0 0 0 0 0 0 0 0 0
0 0 0 0 0 0 0 0 0 0 0
0 0 0 0 0 0 0 0 0 0 0
0 0 0 0 0 0 0 0 0 0 0
0 0 0 0 0 0 0 0 0 0 0
0 0 0 0 0 0 0 0 0 0 0
0 0 0 0 0 0 0 0 0 0 0
0 0 0 0 0 0 0 0 0 0 0
0 0 0 0 0 0 0 0 0 0 0
0 0 0 0 0 0 0 0 0 0 0
0 0 0 0 0 0 0 0 0 0 0
0 0 0 0 0 0 0 0 0 0 0
0 0 0 0 0 0 0 0 0 0 0
0 0 0 0 0 0 0 0 0 0 0
0 0 0 0 0 0 0 0 0 0 0
0 0 0 0 0 0 0 0 0 0 0
0 0 0 0 0 0 0 0 0 0 0
0 0 0 0 0 0 0 0 0 0 0