MODE 2
SIZE 11/60
LIMIT 0/45
COLOR LIMIT 5
STARS 3500/7000/12000
CollectNo  3
1 5 0 2 0 9 0 2 0 5 1
0 1 2 0 2 0 2 0 5 1 0
0 3 3 3 3 3 3 3 3 0 0
0 0 5 4 5 4 5 4 5 0 0
0 0 4 4 4 4 4 4 4 0 0
0 4 4 4 4 4 4 4 4 4 0
0 5 5 5 5 5 5 5 5 5 0
0 0 0 5 5 5 5 0 0 0 0
4 4 5 5 5 5 5 5 4 4 0
0 4 4 4 4 4 4 4 4 0 0
4 4 2 2 2 2 2 2 4 4 0
2 2 2 2 2 2 2 2 2 2 2
0 0 3 3 3 3 3 3 3 0 0
0 3 3 3 3 3 3 3 3 3 0
0 5 5 5 5 5 5 5 5 5 0
5 5 5 5 5 12 5 5 5 5 5
0 4 0 4 0 4 0 4 0 4 0
4 0 4 0 4 0 4 0 4 0 4
0 4 0 4 0 4 0 4 0 4 0
4 0 4 0 4 0 4 0 4 0 4
3 0 3 0 3 0 3 0 3 0 3
0 3 0 3 0 3 0 3 0 3 0
0 5 0 5 0 12 0 5 0 5 0
5 0 5 0 5 0 5 0 5 0 5
0 5 0 5 0 5 0 5 0 5 0
5 0 5 0 5 0 5 0 5 0 5
0 5 0 5 0 5 0 5 0 5 0
0 0 0 0 0 0 0 0 0 0 0
0 0 0 0 0 0 0 0 0 0 0
0 0 0 0 0 0 0 0 0 0 0
0 0 0 0 0 0 0 0 0 0 0
0 0 0 0 0 0 0 0 0 0 0
0 0 0 0 0 0 0 0 0 0 0
0 0 0 0 0 0 0 0 0 0 0
0 0 0 0 0 0 0 0 0 0 0
0 0 0 0 0 0 0 0 0 0 0
0 0 0 0 0 0 0 0 0 0 0
0 0 0 0 0 0 0 0 0 0 0
0 0 0 0 0 0 0 0 0 0 0
0 0 0 0 0 0 0 0 0 0 0
0 0 0 0 0 0 0 0 0 0 0
0 0 0 0 0 0 0 0 0 0 0
0 0 0 0 0 0 0 0 0 0 0
0 0 0 0 0 0 0 0 0 0 0
0 0 0 0 0 0 0 0 0 0 0
0 0 0 0 0 0 0 0 0 0 0
0 0 0 0 0 0 0 0 0 0 0
0 0 0 0 0 0 0 0 0 0 0
0 0 0 0 0 0 0 0 0 0 0
0 0 0 0 0 0 0 0 0 0 0
0 0 0 0 0 0 0 0 0 0 0
0 0 0 0 0 0 0 0 0 0 0
0 0 0 0 0 0 0 0 0 0 0
0 0 0 0 0 0 0 0 0 0 0
0 0 0 0 0 0 0 0 0 0 0
0 0 0 0 0 0 0 0 0 0 0
0 0 0 0 0 0 0 0 0 0 0
0 0 0 0 0 0 0 0 0 0 0
0 0 0 0 0 0 0 0 0 0 0
0 0 0 0 0 0 0 0 0 0 0