MODE 2
SIZE 11/60
LIMIT 0/90
COLOR LIMIT 4
STARS 3000/10500/15500
CollectNo  22
4 4 4 5 0 0 0 5 4 4 4
0 0 0 4 5 0 5 4 0 0 0
0 0 0 0 4 12 4 0 0 0 0
2 2 9 2 2 11 2 2 9 2 2
2 2 2 2 2 10 2 2 2 2 2
0 0 0 0 3 8 3 0 0 0 0
0 0 0 3 1 2 1 3 0 0 0
0 0 3 1 2 9 2 1 3 0 0
0 0 0 3 1 2 1 3 0 0 0
0 0 0 0 3 1 3 0 0 0 0
4 4 11 4 4 10 4 4 11 4 4
4 4 4 4 4 8 4 4 4 4 4
0 0 0 0 1 12 1 0 0 0 0
0 0 0 1 5 0 5 1 0 0 0
0 0 1 5 0 0 0 5 1 0 0
0 0 0 1 5 0 5 1 0 0 0
0 0 0 0 1 12 1 0 0 0 0
3 3 10 3 3 8 3 3 10 3 3
3 3 3 3 3 9 3 3 3 3 3
0 0 0 0 2 11 2 0 0 0 0
0 0 0 2 4 0 4 2 0 0 0
0 0 2 4 0 0 0 4 2 0 0
0 0 0 2 4 0 4 2 0 0 0
0 0 0 0 2 4 2 0 0 0 0
5 5 12 5 5 2 5 5 12 5 5
5 5 5 5 5 5 5 5 5 5 5
0 0 0 0 0 11 0 0 0 0 0
0 0 0 0 4 0 4 0 0 0 0
4 4 4 4 4 4 4 4 4 4 4
0 6 0 0 6 6 0 0 6 0 0
0 6 6 0 0 6 0 0 6 6 0
6 6 6 0 6 11 0 6 6 6 0
0 6 6 6 6 6 6 6 6 6 0
0 6 0 0 6 6 0 0 6 0 0
0 6 6 0 0 6 0 0 6 6 0
6 6 6 0 6 6 0 6 6 6 0
0 6 6 6 6 6 6 6 6 6 0
6 6 6 0 6 6 0 6 6 6 0
0 6 6 0 0 6 0 0 6 6 0
0 6 0 0 6 6 0 0 6 0 0
0 6 6 0 6 0 6 0 6 6 0
6 6 6 6 0 0 6 6 6 6 0
6 6 6 6 6 6 6 6 6 6 6
0 0 0 0 0 0 0 0 0 0 0
0 0 0 0 0 0 0 0 0 0 0
0 0 0 0 0 0 0 0 0 0 0
0 0 0 0 0 0 0 0 0 0 0
0 0 0 0 0 0 0 0 0 0 0
0 0 0 0 0 0 0 0 0 0 0
0 0 0 0 0 0 0 0 0 0 0
0 0 0 0 0 0 0 0 0 0 0
0 0 0 0 0 0 0 0 0 0 0
0 0 0 0 0 0 0 0 0 0 0
0 0 0 0 0 0 0 0 0 0 0
0 0 0 0 0 0 0 0 0 0 0
0 0 0 0 0 0 0 0 0 0 0
0 0 0 0 0 0 0 0 0 0 0
0 0 0 0 0 0 0 0 0 0 0
0 0 0 0 0 0 0 0 0 0 0
0 0 0 0 0 0 0 0 0 0 0