MODE 2
SIZE 11/60
LIMIT 0/76
COLOR LIMIT 4
STARS 3500/15000/18500
CollectNo  9
0 0 4 0 0 3 0 0 4 0 0
0 4 4 4 3 10 3 4 4 4 0
0 0 4 0 0 3 0 0 4 0 0
0 0 1 0 0 5 0 0 1 0 0
0 1 8 1 5 5 5 1 8 1 0
0 0 1 0 0 5 0 0 1 0 0
0 0 2 0 0 4 0 0 2 0 0
0 2 2 2 4 11 4 2 2 2 0
0 0 2 0 0 4 0 0 2 0 0
0 0 3 0 0 1 0 0 3 0 0
0 3 10 3 1 1 1 3 10 3 0
0 0 3 0 0 1 0 0 3 0 0
0 0 4 0 0 3 0 0 4 0 0
0 4 4 4 3 10 3 4 4 4 0
0 0 4 0 0 3 0 0 4 0 0
0 0 1 0 0 5 0 0 1 0 0
0 1 1 1 5 5 5 1 1 1 0
0 0 1 0 0 5 0 0 1 0 0
0 0 2 0 0 4 0 0 2 0 0
0 2 2 2 4 11 4 2 2 2 0
0 0 2 0 0 4 0 0 2 0 0
0 0 3 0 0 1 0 0 3 0 0
0 3 3 3 1 1 1 3 3 3 0
0 0 3 0 0 1 0 0 3 0 0
0 0 4 0 0 3 0 0 4 0 0
0 4 4 4 3 10 3 4 4 4 0
0 0 4 0 0 3 0 0 4 0 0
0 0 1 0 0 5 0 0 1 0 0
0 1 1 1 5 5 5 1 1 1 0
0 0 1 0 6 5 6 0 1 0 0
0 0 0 0 0 0 0 0 0 0 0
0 0 0 0 0 0 0 0 0 0 0
0 0 0 0 0 0 0 0 0 0 0
0 0 0 0 0 0 0 0 0 0 0
0 0 0 0 0 0 0 0 0 0 0
0 0 0 0 0 0 0 0 0 0 0
0 0 0 0 0 0 0 0 0 0 0
0 0 0 0 0 0 0 0 0 0 0
0 0 0 0 0 0 0 0 0 0 0
0 0 0 0 0 0 0 0 0 0 0
0 0 0 0 0 0 0 0 0 0 0
0 0 0 0 0 0 0 0 0 0 0
0 0 0 0 0 0 0 0 0 0 0
0 0 0 0 0 0 0 0 0 0 0
0 0 0 0 0 0 0 0 0 0 0
0 0 0 0 0 0 0 0 0 0 0
0 0 0 0 0 0 0 0 0 0 0
0 0 0 0 0 0 0 0 0 0 0
0 0 0 0 0 0 0 0 0 0 0
0 0 0 0 0 0 0 0 0 0 0
0 0 0 0 0 0 0 0 0 0 0
0 0 0 0 0 0 0 0 0 0 0
0 0 0 0 0 0 0 0 0 0 0
0 0 0 0 0 0 0 0 0 0 0
0 0 0 0 0 0 0 0 0 0 0
0 0 0 0 0 0 0 0 0 0 0
0 0 0 0 0 0 0 0 0 0 0
0 0 0 0 0 0 0 0 0 0 0
0 0 0 0 0 0 0 0 0 0 0
0 0 0 0 0 0 0 0 0 0 0