MODE 0
SIZE 9/30
LIMIT 0/25
COLOR LIMIT 9
STARS 900/4500/9000
CollectNo  6
2 2 2 2 1 1 1 1 1
2 2 2 1 1 1 1 1 1
21 21 21 2 2 2 12 12 12
3 3 3 12 21 21 21 3 3
3 3 3 3 3 3 3 3 3
1 1 3 4 4 4 3 3 5
19 10 4 4 4 4 4 14 14
19 10 4 4 4 4 4 23 23
1 1 1 4 4 4 5 5 5
20 11 11 11 4 3 3 3 3
20 20 20 4 4 3 3 3 3
2 2 2 2 3 3 3 3 3
2 2 2 2 3 3 3 3 3
2 2 2 0 0 3 3 3 0
0 2 0 0 0 0 3 0 0
0 0 0 0 0 0 0 0 0
0 0 0 0 0 0 0 0 0
0 0 0 0 0 0 0 0 0
0 0 0 0 0 0 0 0 0
0 0 0 0 0 0 0 0 0
0 0 0 0 0 0 0 0 0
0 0 0 0 0 0 0 0 0
0 0 0 0 0 0 0 0 0
0 0 0 0 0 0 0 0 0
0 0 0 0 0 0 0 0 0
0 0 0 0 0 0 0 0 0
0 0 0 0 0 0 0 0 0
0 0 0 0 0 0 0 0 0
0 0 0 0 0 0 0 0 0
0 0 0 0 0 0 0 0 0
0 0 0 0 0 0 0 0 0
0 0 0 0 0 0 0 0 0
0 0 0 0 0 0 0 0 0
0 0 0 0 0 0 0 0 0
0 0 0 0 0 0 0 0 0
0 0 0 0 0 0 0 0 0
0 0 0 0 0 0 0 0 0
0 0 0 0 0 0 0 0 0
0 0 0 0 0 0 0 0 0
0 0 0 0 0 0 0 0 0
0 0 0 0 0 0 0 0 0
0 0 0 0 0 0 0 0 0
0 0 0 0 0 0 0 0 0
0 0 0 0 0 0 0 0 0
0 0 0 0 0 0 0 0 0
0 0 0 0 0 0 0 0 0