MODE 0
SIZE 9/60
LIMIT 0/25
COLOR LIMIT 9
STARS 870/4350/8700
CollectNo  7
0 3 3 3 30 10 3 3 3
0 0 4 4 0 0 0 4 4
0 4 4 4 4 0 4 4 4
0 0 3 21 21 10 21 21 3
0 3 3 3 3 3 3 3 3
0 2 2 0 0 0 0 2 2
2 1 8 2 4 13 2 1 8
2 1 1 2 13 13 2 1 1
0 2 2 0 0 0 0 2 2
0 0 3 3 3 3 3 3 3
0 5 3 3 12 12 12 3 3
5 5 0 0 0 0 0 0 5
0 3 3 3 3 3 3 3 3
3 3 3 3 3 10 3 3 3
0 2 2 0 0 0 0 0 20
2 10 8 2 0 0 0 20 1
2 10 10 2 0 0 0 20 1
0 2 2 0 0 0 0 0 2
0 3 3 3 3 3 3 3 3
3 3 3 14 14 14 14 5 3
0 2 2 0 0 0 0 0 2
2 2 0 0 0 0 0 0 0
0 3 3 12 12 12 12 3 3
3 3 3 3 3 3 3 3 3
0 0 0 0 0 5 0 0 0
0 0 0 0 5 5 5 0 0
0 0 0 14 14 0 5 5 0
0 2 2 14 14 0 5 5 2
2 2 2 5 5 0 5 5 2
0 0 0 0 0 0 0 0 0
0 0 0 0 0 0 0 0 0
0 0 0 0 0 0 0 0 0
0 0 0 0 0 0 0 0 0
0 0 0 0 0 0 0 0 0
0 0 0 0 0 0 0 0 0
0 0 0 0 0 0 0 0 0
0 0 0 0 0 0 0 0 0
0 0 0 0 0 0 0 0 0
0 0 0 0 0 0 0 0 0
0 0 0 0 0 0 0 0 0
0 0 0 0 0 0 0 0 0
0 0 0 0 0 0 0 0 0
0 0 0 0 0 0 0 0 0
0 0 0 0 0 0 0 0 0
0 0 0 0 0 0 0 0 0
0 0 0 0 0 0 0 0 0
0 0 0 0 0 0 0 0 0
0 0 0 0 0 0 0 0 0
0 0 0 0 0 0 0 0 0
0 0 0 0 0 0 0 0 0
0 0 0 0 0 0 0 0 0
0 0 0 0 0 0 0 0 0
0 0 0 0 0 0 0 0 0
0 0 0 0 0 0 0 0 0
0 0 0 0 0 0 0 0 0
0 0 0 0 0 0 0 0 0
0 0 0 0 0 0 0 0 0
0 0 0 0 0 0 0 0 0
0 0 0 0 0 0 0 0 0
0 0 0 0 0 0 0 0 0