MODE 0
SIZE 9/60
LIMIT 0/72
COLOR LIMIT 9
STARS 2000/10000/20000
CollectNo  5
0 0 5 5 0 28 0 19 10
0 0 4 4 2 4 10 0 4
0 19 19 0 10 0 4 0 5
19 4 0 10 0 11 20 5 0
0 4 0 0 20 0 5 5 0
0 0 5 0 1 1 0 3 3
0 5 0 8 0 0 11 1 0
0 0 5 0 0 11 0 20 1
0 5 0 0 0 0 4 0 0
0 0 12 0 0 0 0 21 0
0 0 0 12 4 4 21 0 21
0 13 12 0 0 4 8 0 0
13 13 5 0 0 0 0 1 1
0 0 0 5 0 0 4 0 0
0 0 0 2 0 0 10 0 0
0 0 2 0 2 3 0 3 22
0 2 0 0 0 0 3 0 22
0 5 0 0 0 3 0 22 0
0 0 5 0 1 0 4 0 2
0 4 1 1 0 0 3 0 4
0 4 0 3 0 3 0 0 4
4 0 0 11 3 0 0 4 0
0 4 11 0 0 0 0 20 20
2 0 0 2 0 0 0 0 0
0 2 0 4 0 0 0 0 1
0 0 2 0 4 0 0 1 0
0 0 0 0 0 4 1 1 0
0 0 0 0 14 23 0 0 0
0 0 0 0 14 0 0 0 0
0 0 0 12 5 3 0 0 0
0 0 0 0 0 3 3 0 0
0 0 0 0 0 0 3 0 0
0 0 0 0 0 0 0 0 0
0 0 0 0 0 0 0 0 0
0 0 0 0 0 0 0 0 0
0 0 0 0 0 0 0 0 0
0 0 0 0 0 0 0 0 0
0 0 0 0 0 0 0 0 0
0 0 0 0 0 0 0 0 0
0 0 0 0 0 0 0 0 0
0 0 0 0 0 0 0 0 0
0 0 0 0 0 0 0 0 0
0 0 0 0 0 0 0 0 0
0 0 0 0 0 0 0 0 0
0 0 0 0 0 0 0 0 0
0 0 0 0 0 0 0 0 0
0 0 0 0 0 0 0 0 0
0 0 0 0 0 0 0 0 0
0 0 0 0 0 0 0 0 0
0 0 0 0 0 0 0 0 0
0 0 0 0 0 0 0 0 0
0 0 0 0 0 0 0 0 0
0 0 0 0 0 0 0 0 0
0 0 0 0 0 0 0 0 0
0 0 0 0 0 0 0 0 0
0 0 0 0 0 0 0 0 0
0 0 0 0 0 0 0 0 0
0 0 0 0 0 0 0 0 0
0 0 0 0 0 0 0 0 0
0 0 0 0 0 0 0 0 0