MODE 0
SIZE 9/30
LIMIT 0/26
COLOR LIMIT 9
STARS 200/1000/2000
CollectNo  4
0 0 2 0 0 0 10 0 1
0 2 0 2 0 3 0 0 0
2 0 0 0 30 0 0 0 1
0 2 0 3 0 2 0 1 0
0 0 3 0 0 0 2 0 0
0 1 4 4 11 4 4 0 0
10 0 0 0 0 0 4 0 5
0 10 0 0 0 4 20 5 3
0 0 10 0 4 20 0 0 0
0 0 0 4 20 0 4 0 3
0 0 4 2 0 0 0 4 0
1 1 2 0 2 0 4 0 4
0 0 5 5 5 5 12 5 5
0 0 0 5 0 0 0 1 0
0 0 0 0 5 0 1 0 0
0 0 0 0 0 8 0 0 0
0 0 0 0 1 0 5 0 0
0 0 0 10 0 0 0 5 0
4 4 10 0 0 0 0 0 5
0 4 4 0 0 0 0 0 3
0 0 0 4 0 0 0 3 0
0 0 0 0 4 0 3 0 0
0 0 0 0 0 4 0 0 0
0 0 0 0 0 0 0 0 0
0 0 0 0 0 0 0 0 0
0 0 0 0 0 0 0 0 0
0 0 0 0 0 0 0 0 0
0 0 0 0 0 0 0 0 0
0 0 0 0 0 0 0 0 0
0 0 0 0 0 0 0 0 0
0 0 0 0 0 0 0 0 0
0 0 0 0 0 0 0 0 0
0 0 0 0 0 0 0 0 0
0 0 0 0 0 0 0 0 0
0 0 0 0 0 0 0 0 0
0 0 0 0 0 0 0 0 0
0 0 0 0 0 0 0 0 0
0 0 0 0 0 0 0 0 0
0 0 0 0 0 0 0 0 0
0 0 0 0 0 0 0 0 0
0 0 0 0 0 0 0 0 0
0 0 0 0 0 0 0 0 0
0 0 0 0 0 0 0 0 0
0 0 0 0 0 0 0 0 0
0 0 0 0 0 0 0 0 0
0 0 0 0 0 0 0 0 0
0 0 0 0 0 0 0 0 0
0 0 0 0 0 0 0 0 0
0 0 0 0 0 0 0 0 0
0 0 0 0 0 0 0 0 0
0 0 0 0 0 0 0 0 0
0 0 0 0 0 0 0 0 0
0 0 0 0 0 0 0 0 0
0 0 0 0 0 0 0 0 0
0 0 0 0 0 0 0 0 0
0 0 0 0 0 0 0 0 0
0 0 0 0 0 0 0 0 0
0 0 0 0 0 0 0 0 0
0 0 0 0 0 0 0 0 0