MODE 0
SIZE 9/30
LIMIT 0/28
COLOR LIMIT 9
STARS 800/1700/2500
CollectNo  8
3 4 1 1 28 10 1 1 1
0 3 4 1 2 8 2 1 4
0 0 3 4 10 20 10 4 3
0 0 5 3 4 10 4 3 5
0 5 0 0 3 11 3 0 0
0 5 0 0 3 4 3 0 0
0 0 5 3 4 4 4 3 5
0 0 3 4 4 4 4 4 3
0 3 4 4 4 2 4 4 4
3 4 4 4 2 8 2 4 4
1 3 4 4 4 2 4 4 4
1 1 3 4 13 13 4 4 3
0 1 1 3 4 4 4 3 1
0 0 12 0 3 4 3 0 12
0 5 0 5 20 0 2 5 0
5 0 0 0 3 0 3 0 0
0 5 0 0 20 0 2 0 0
0 0 5 5 3 11 3 5 5
0 0 0 3 23 4 4 3 0
0 0 3 13 13 13 4 4 3
0 3 4 4 4 2 4 4 4
3 4 4 4 2 8 2 4 4
0 3 4 4 4 11 4 4 4
0 0 3 4 4 4 4 4 3
0 0 0 3 4 4 4 3 0
0 0 0 0 0 0 0 0 0
0 0 0 0 0 0 0 0 0
0 0 0 0 0 0 0 0 0
0 0 0 0 0 0 0 0 0
0 0 0 0 0 0 0 0 0
0 0 0 0 0 0 0 0 0
0 0 0 0 0 0 0 0 0
0 0 0 0 0 0 0 0 0
0 0 0 0 0 0 0 0 0
0 0 0 0 0 0 0 0 0
0 0 0 0 0 0 0 0 0
0 0 0 0 0 0 0 0 0
0 0 0 0 0 0 0 0 0
0 0 0 0 0 0 0 0 0
0 0 0 0 0 0 0 0 0
0 0 0 0 0 0 0 0 0
0 0 0 0 0 0 0 0 0
0 0 0 0 0 0 0 0 0
0 0 0 0 0 0 0 0 0
0 0 0 0 0 0 0 0 0
0 0 0 0 0 0 0 0 0
0 0 0 0 0 0 0 0 0
0 0 0 0 0 0 0 0 0
0 0 0 0 0 0 0 0 0
0 0 0 0 0 0 0 0 0
0 0 0 0 0 0 0 0 0
0 0 0 0 0 0 0 0 0
0 0 0 0 0 0 0 0 0
0 0 0 0 0 0 0 0 0
0 0 0 0 0 0 0 0 0
0 0 0 0 0 0 0 0 0
0 0 0 0 0 0 0 0 0
0 0 0 0 0 0 0 0 0
0 0 0 0 0 0 0 0 0
0 0 0 0 0 0 0 0 0