MODE 0
SIZE 9/60
LIMIT 0/48
COLOR LIMIT 9
STARS 1000/5000/10000
CollectNo  7
0 1 1 28 0 8 0 1 1
3 3 21 21 1 0 1 3 21
1 0 1 1 0 12 0 10 10
0 19 19 0 5 0 5 0 1
1 1 5 5 0 0 0 5 5
1 1 5 5 0 0 0 5 5
0 3 19 0 5 0 5 0 19
3 4 3 1 0 12 0 1 3
4 20 4 3 10 0 1 3 4
2 2 2 13 3 8 3 13 2
2 2 2 2 4 0 4 2 2
0 0 3 1 0 0 0 1 3
0 3 5 21 1 0 1 3 5
3 5 5 5 21 8 3 5 5
3 5 5 5 5 0 5 5 5
0 4 0 0 3 0 3 0 0
4 0 4 21 0 21 0 4 4
0 6 0 4 21 0 3 4 0
0 6 4 0 4 0 4 0 6
6 0 6 0 6 4 0 6 0
5 23 23 23 5 12 5 5 5
0 5 0 5 0 3 0 6 0
5 0 5 0 3 0 3 0 6
0 5 0 3 12 0 5 3 0
6 0 3 0 0 5 0 0 3
0 3 0 0 5 0 5 0 0
3 0 6 6 0 12 0 6 0
1 1 1 1 1 1 1 1 1
0 0 0 0 0 0 0 0 0
0 0 0 0 0 0 0 0 0
0 0 0 0 0 0 0 0 0
0 0 0 0 0 0 0 0 0
0 0 0 0 0 0 0 0 0
0 0 0 0 0 0 0 0 0
0 0 0 0 0 0 0 0 0
0 0 0 0 0 0 0 0 0
0 0 0 0 0 0 0 0 0
0 0 0 0 0 0 0 0 0
0 0 0 0 0 0 0 0 0
0 0 0 0 0 0 0 0 0
0 0 0 0 0 0 0 0 0
0 0 0 0 0 0 0 0 0
0 0 0 0 0 0 0 0 0
0 0 0 0 0 0 0 0 0
0 0 0 0 0 0 0 0 0
0 0 0 0 0 0 0 0 0
0 0 0 0 0 0 0 0 0
0 0 0 0 0 0 0 0 0
0 0 0 0 0 0 0 0 0
0 0 0 0 0 0 0 0 0
0 0 0 0 0 0 0 0 0
0 0 0 0 0 0 0 0 0
0 0 0 0 0 0 0 0 0
0 0 0 0 0 0 0 0 0
0 0 0 0 0 0 0 0 0
0 0 0 0 0 0 0 0 0
0 0 0 0 0 0 0 0 0
0 0 0 0 0 0 0 0 0
0 0 0 0 0 0 0 0 0
0 0 0 0 0 0 0 0 0