MODE 0
SIZE 9/60
LIMIT 0/67
COLOR LIMIT 9
STARS 1200/6000/12000
CollectNo  12
30 10 5 12 2 1 1 8 0
4 3 3 5 5 2 2 10 10
4 4 3 3 5 5 2 2 1
2 4 4 3 3 5 5 2 2
2 2 4 4 3 3 5 5 2
1 20 20 4 4 3 3 5 5
1 1 20 20 4 4 3 3 5
5 1 1 2 2 4 4 3 3
5 5 1 1 2 2 4 4 3
0 5 5 10 10 2 2 4 4
0 0 5 12 1 8 2 9 4
0 5 5 19 19 2 2 4 4
5 5 1 1 2 2 4 4 3
5 1 1 11 11 4 4 3 3
1 1 2 2 4 4 3 3 5
1 2 2 4 4 3 3 5 5
2 2 4 4 3 3 23 23 2
2 4 4 3 3 14 14 2 2
4 4 3 3 5 5 2 2 4
4 3 3 5 5 2 2 4 4
3 3 5 5 2 2 13 13 1
3 5 5 11 11 22 22 1 1
5 5 2 2 4 4 2 1 1
5 2 2 4 4 2 2 1 1
2 2 4 4 2 2 2 1 1
2 4 4 2 2 2 9 1 8
4 4 3 3 3 12 12 3 3
4 3 3 3 3 3 3 3 3
3 3 3 3 3 3 3 3 3
24 24 0 0 16 16 0 0 6
6 6 0 0 0 6 0 0 0
6 6 6 6 6 6 6 6 6
0 0 0 0 0 0 0 0 0
0 0 0 0 0 0 0 0 0
0 0 0 0 0 0 0 0 0
0 0 0 0 0 0 0 0 0
0 0 0 0 0 0 0 0 0
0 0 0 0 0 0 0 0 0
0 0 0 0 0 0 0 0 0
0 0 0 0 0 0 0 0 0
0 0 0 0 0 0 0 0 0
0 0 0 0 0 0 0 0 0
0 0 0 0 0 0 0 0 0
0 0 0 0 0 0 0 0 0
0 0 0 0 0 0 0 0 0
0 0 0 0 0 0 0 0 0
0 0 0 0 0 0 0 0 0
0 0 0 0 0 0 0 0 0
0 0 0 0 0 0 0 0 0
0 0 0 0 0 0 0 0 0
0 0 0 0 0 0 0 0 0
0 0 0 0 0 0 0 0 0
0 0 0 0 0 0 0 0 0
0 0 0 0 0 0 0 0 0
0 0 0 0 0 0 0 0 0
0 0 0 0 0 0 0 0 0
0 0 0 0 0 0 0 0 0
0 0 0 0 0 0 0 0 0